^C:\USERS\BYRON\DOCUMENTS\VISUAL STUDIO 2013\PROJECTS\SDLTUTORIAL_9\MADDIESDL\MAIN.CPP
C:\USERS\BYRON\DOCUMENTS\VISUAL STUDIO 2013\PROJECTS\SDLTUTORIAL_9\MADDIESDL\DEBUG\VC120.PDB
C:\USERS\BYRON\DOCUMENTS\VISUAL STUDIO 2013\PROJECTS\SDLTUTORIAL_9\MADDIESDL\DEBUG\VC120.IDB
C:\USERS\BYRON\DOCUMENTS\VISUAL STUDIO 2013\PROJECTS\SDLTUTORIAL_9\MADDIESDL\DEBUG\MAIN.OBJ
^C:\USERS\BYRON\DOCUMENTS\VISUAL STUDIO 2013\PROJECTS\SPIKE 6 - INIT\MADDIESDL\MAIN.CPP
C:\USERS\BYRON\DOCUMENTS\VISUAL STUDIO 2013\PROJECTS\SPIKE 6 - INIT\MADDIESDL\DEBUG\VC120.PDB
C:\USERS\BYRON\DOCUMENTS\VISUAL STUDIO 2013\PROJECTS\SPIKE 6 - INIT\MADDIESDL\DEBUG\VC120.IDB
C:\USERS\BYRON\DOCUMENTS\VISUAL STUDIO 2013\PROJECTS\SPIKE 6 - INIT\MADDIESDL\DEBUG\MAIN.OBJ
