^C:\USERS\BYRON\DOCUMENTS\VISUAL STUDIO 2013\PROJECTS\SDLTUTORIAL_9\MADDIESDL\DEBUG\MAIN.OBJ
C:\USERS\BYRON\DOCUMENTS\VISUAL STUDIO 2013\PROJECTS\SDLTUTORIAL_9\DEBUG\SDLTEMPLATE.ILK
C:\USERS\BYRON\DOCUMENTS\VISUAL STUDIO 2013\PROJECTS\SDLTUTORIAL_9\DEBUG\SDLTEMPLATE.EXE
C:\USERS\BYRON\DOCUMENTS\VISUAL STUDIO 2013\PROJECTS\SDLTUTORIAL_9\DEBUG\SDLTEMPLATE.PDB
